module bitbucket.org/Udevs/company_service

go 1.16

require (
	github.com/golang/protobuf v1.5.2 // indirect
	github.com/google/uuid v1.3.0
	github.com/jmoiron/sqlx v1.3.3
	github.com/lib/pq v1.2.0
	github.com/manveru/faker v0.0.0-20171103152722-9fbc68a78c4d
	github.com/manveru/gobdd v0.0.0-20131210092515-f1a17fdd710b // indirect
	github.com/spf13/cast v1.3.1
	github.com/stretchr/testify v1.7.0
	go.uber.org/zap v1.16.0
	google.golang.org/grpc v1.37.0
	google.golang.org/protobuf v1.26.0
)
